[
  {
    "customerID": "c001",
    "name": "John",
    "lastname": "Smith",
    "dateOfBirth": "23/03/1990"
  },
  {
    "customerID": "c002",
    "name": "Ross",
    "lastname": "White",
    "dateOfBirth": "2/01/1989"
  },
  {
    "customerID": "c003",
    "name": "Tom",
    "lastname": "Brown",
    "dateOfBirth": "9/12/1994"
  }
]