{
  "errorResponse": {
    "errorCode": "400",
    "errorSeverity": "ERROR",
    "errorDescription": "Bad Request",
    "errorServer": "MuleSoft",
    "errorTechnicalDetails": "Invalid value '' for query parameter transactionId. Expected min length 1 (org.mule.module.apikit.exception.BadRequestException)"
  }
}