{
  "errorResponse": {
    "errorCode": "403",
    "errorSeverity": "ERROR",
    "errorDescription": "Access Forbidden - You do not have permission to access this resource",
    "errorServer": "MuleSoft",
    "errorTechnicalDetails": "Could not find required GrantedAuthority for principal provided. Access denied. (org.mule.api.security.NotPermittedException)"
  }
}