{
  "errorResponse": {
    "errorCode": "55149ca3-9b60-11e8-a92c-f8b156dfa899",
    "errorSeverity": "ERROR",
    "errorDescription": "Unable to complete request",
    "errorServer": "MuleSoft",
    "errorTechnicalDetails": "An Unkown error has occured. Please contact IT Service desk."
  }
}