{
	"errorResponse": {
		"errorCode": "409",
		"errorSeverity": "ERROR",
		"errorDescription": "Conflict",
		"errorServer": "MuleSoft",
		"errorTechnicalDetails": "The request could not be completed due to a conflict with the current state of the target resource. This code is used in situations where the user might be able to resolve the conflict and resubmit the request (org.mule.module.apikit.exception.NotAcceptableException)"
	}
}